{"success":true,"count":210,"pagination":{"page":1,"limit":1,"total":210,"pages":210},"products":[{"id":"00000000-69fa-562e-169c-6572236c088e","legacy_id":null,"name":"iPhone 15 Pro 256GB (E2E) 1778013742716","price":1099,"stock":1,"min_stock":1,"sold":1,"is_active":true,"barcode":null,"description":null,"features":[],"image":null,"images":[],"category":"Smartphones","sub_category":null,"brand":"Apple","model":"iPhone 15 Pro","supplier_name":null,"supplier_contact":null,"cost_price":900,"condition":"New","seller":null,"battery":null,"processor":null,"color":null,"display":null,"storage":null,"specs":{},"rating":0,"num_reviews":0,"is_margin_scheme":false,"seo_meta_title":null,"seo_meta_description":null,"seo_keywords":null,"seo_canonical_url":null,"created_at":"2026-05-05T20:42:22.722+00:00","updated_at":"2026-05-09T23:14:13.516893+00:00"}],"data":[{"id":"00000000-69fa-562e-169c-6572236c088e","legacy_id":null,"name":"iPhone 15 Pro 256GB (E2E) 1778013742716","price":1099,"stock":1,"min_stock":1,"sold":1,"is_active":true,"barcode":null,"description":null,"features":[],"image":null,"images":[],"category":"Smartphones","sub_category":null,"brand":"Apple","model":"iPhone 15 Pro","supplier_name":null,"supplier_contact":null,"cost_price":900,"condition":"New","seller":null,"battery":null,"processor":null,"color":null,"display":null,"storage":null,"specs":{},"rating":0,"num_reviews":0,"is_margin_scheme":false,"seo_meta_title":null,"seo_meta_description":null,"seo_keywords":null,"seo_canonical_url":null,"created_at":"2026-05-05T20:42:22.722+00:00","updated_at":"2026-05-09T23:14:13.516893+00:00"}]}